1;Maldive;Paradis;5.02.2021-20.02.2021;2000;2;Pop Dan;Bucuresti
2;Maldive;Paradis;5.02.2021-20.02.2021;2000;3;Pacurar Maria;Bucuresti
3;Spania;Buenos;10.03.2021-20.03.2021;1500;10;Bob Dani;Cluj
4;Maldive;Paradis;5.02.2021-20.02.2021;2000.0;3;a;a
5;Maldive;Paradis;5.02.2021-20.02.2021;2000.0;2;r;r
6;Maldive;Paradis;5.02.2021-20.02.2021;2000.0;2;r;a
7;Maldive;Paradis;5.02.2021-20.02.2021;2000.0;2;e;e
8;Maldive;Paradis;5.02.2021-20.02.2021;2000.0;1;ghita;r
9;Spania;Buenos;10.03.2021-20.03.2021;1500.0;2;r;r
10;Spania;Buenos;10.03.2021-20.03.2021;1500.0;2;u;s
11;Spania;Buenos;10.03.2021-20.03.2021;1500.0;2;a;a
12;Spania;Buenos;10.03.2021-20.03.2021;1500.0;1;a;d
13;Spania;Buenos;10.03.2021-20.03.2021;1500.0;1;e;e
14;Spania;Buenos;10.03.2021-20.03.2021;1500.0;1;r;r
